891104 255739
925679 436161
892562 639540
839660 892940
364078 800092
812689 997781
40276 132183
594083 830746
611059 576038
535804 596298
348984 44259
803281 459082
71326 620133
695216 390461
667951 765661
557531 760317
695767 823245
465125 729341
342650 291586
753931 373219
898997 65996
986382 716784
111871 596761
426090 750022
251111 251774
824163 33917
150588 204014
445193 394693
916707 259649
339106 505592
73566 825793
559282 185300
387329 324944
545904 669656
678158 721638
390424 442545
539073 825336
1824 624816
850614 876989
343203 298344
402849 173888
253790 902565
110753 756212
300513 253047
8757 842444
717090 746681
173804 792742
585516 65339
839315 12174
743226 888875
623707 403964
622558 85629
672010 962356
241594 135088
133695 512217
773207 868356
65805 979825
567551 230463
235613 849951
452014 640601
459520 759751
280219 377216
556622 411853
359000 270198
848338 419126
182913 402929
699238 362340
628781 501675
844932 667057
925749 475658
230341 779754
317808 354239
796899 900449
550152 375935
940980 2699
630301 307503
603913 217509
489802 284561
851604 406681
521059 344659
560341 518080
210744 977776
528804 725833
862679 342705
971830 667886
464056 984754
66177 423870
85795 237549
501389 713954
316605 650622
393850 77820
256761 827114
438821 373495
821105 138919
54461 526229
310557 339916
151469 441993
789960 217581
965797 707615
42711 911202
562808 8625
297638 870083
384900 808957
822240 114611
25774 926287
512064 97155
220227 689988
180032 132101
16219 523307
748084 862551
405899 190101
605606 757603
151371 876081
582456 663881
715570 452813
439371 114476
411352 524354
386398 604719
132449 799598
324923 441391
864739 139857
4777 115967
508846 7116
150809 596368
479305 951306
694516 121967
801678 536677
894039 534224
238428 763766
684528 59805
87774 341309
157968 446012
757688 592352
939603 626148
531541 76387
345318 599314
272664 450843
373350 873589
829714 268447
645388 876606
525469 388507
280593 90531
236782 864117
50255 708250
687620 876564
647427 235233
687664 910405
997144 455681
334560 312105
10718 339251
621981 942053
143822 679167
662416 271104
829215 946776
958574 896327
141405 883485
886755 292419
175618 785665
354221 546591
502329 385543
883007 2806
41374 605357
482690 403015
364910 547248
21703 486668
675675 426677
305244 357661
253697 85936
484174 469774
441787 932210
879692 422409
778317 672741
168730 970063
98724 987056
523377 270184
854797 163607
907035 30482
862414 135301
358986 1981
903964 590907
152090 101933
19839 871947
549431 39687
460417 898321
575075 569581
164817 170610
704260 538372
743235 878791
244648 872408
723981 482771
105840 80799
23730 102976
433734 689594
167678 1778
761973 297773
76353 420064
129106 639224
597400 356626
581163 919324
851731 483298
204913 432018
164487 661700
163164 203126
599283 827284
383207 493498
960352 586905
115875 734993
423275 187994
647877 55925
2424 661314
720685 288642
779878 351798
824044 594932
526475 781310
508094 400344
685278 895689
840609 775164
174125 179978
981070 785460
238633 88247
649009 806892
785424 789979
381794 121692
879364 346379
175999 901257
985354 45202
379073 687083
634327 428580
17378 959237
637885 744005
981055 191624
447884 563560
338419 995472
969312 437402
698333 542693
289574 971738
363035 767365
330560 284236
969227 629750
701640 136428
320384 437327
775753 751700
373810 250654
908438 426688
962909 111571
753224 765382
511202 413941
730143 260879
943790 555224
960610 436376
587143 975197
705632 938376
878751 867695
