76518 980168
767453 249944
939223 573110
72692 122024
419052 32950
567353 186249
123279 284784
340092 329107
242300 751457
130236 290590
650624 787099
652406 623374
196641 610485
233570 289613
944105 26665
81553 449552
18514 660553
378039 963297
94474 183487
534750 244125
814950 103768
948172 220825
151552 908643
503623 522011
295723 576830
850738 680202
488576 960794
83315 295145
964667 880391
24156 775762
305757 147810
209979 465666
38323 852803
164214 167872
129564 281467
69717 58993
298054 639589
209378 603012
281746 569381
35215 876747
500659 247513
534546 135348
606814 418750
492058 922734
589081 858887
527810 665428
923587 23450
916891 388844
689307 640702
556169 560900
754360 858894
775203 205245
475386 257825
846058 353128
150176 326553
462309 644352
949721 208070
881362 486507
688461 66555
792975 811175
710269 499584
680457 370328
487371 106680
464283 85579
333743 677503
954525 45281
430583 572142
201352 688794
356862 419291
444622 477742
548985 213594
242251 952557
346436 513671
259170 257506
870450 207466
326592 454811
162295 239351
379747 187667
407295 558975
7102 560877
572025 742901
447688 448693
760599 504785
338316 748683
533982 148524
959688 211280
173278 621943
24886 956248
541337 76880
848750 364623
536241 219000
733616 219537
58984 37468
346630 406867
991219 355466
252706 728294
593614 42292
597699 237149
866402 670448
874435 602353
61440 885875
772794 951986
848726 380645
204936 451130
932479 45949
497056 480595
941883 790395
847502 198085
504011 648273
296915 221247
182518 946708
895425 533314
806219 30665
563405 65349
905299 237956
945641 194192
393407 347042
743648 778362
815277 238152
538010 396130
270199 2163
36950 839329
300140 310799
982185 952278
583391 420212
905171 938388
448127 653611
245784 410408
592684 665539
634702 255210
770426 274855
248924 929287
592842 914166
887189 778984
344500 493486
29470 537893
961198 32339
741730 689828
844662 395495
15902 750226
172174 770551
185331 747073
158996 992478
302745 600872
813086 94026
212693 820459
602729 477888
353883 339695
587236 264942
490784 981651
944777 253692
963436 879149
358058 403906
429770 295252
946736 118357
937998 333517
388668 819652
623574 479828
44580 654367
578620 799187
490926 659263
91524 774958
314028 328995
685065 667875
902807 414386
811014 391849
736299 127369
584296 836768
505098 23134
413813 348619
389203 931096
784608 971630
836061 599589
6579 91105
204992 899297
269730 820452
45593 339957
390555 327955
523717 428199
362649 123558
205933 909427
124793 628982
98229 962885
821951 539894
476306 10247
283013 56193
367472 602507
304733 380629
151734 823411
299837 466542
651797 424300
929285 200542
970696 471251
284989 670371
485400 862178
900485 703831
242004 4145
16630 535546
527446 317279
656786 696862
441607 58423
318331 619593
358174 764254
370800 568067
589401 390719
708813 354490
875619 393402
86797 556856
650877 295320
101508 214823
921868 457262
349657 19950
701216 767536
742789 653970
32783 818226
970385 849201
451028 709318
742489 716524
124266 358579
691633 979412
451777 9691
90138 133874
520725 451444
864112 824860
481394 170555
418109 428951
194252 180013
31092 525308
959356 214329
211667 65553
844522 793429
509764 168384
363400 924181
466306 589418
60168 370731
990706 655378
340786 422417
164143 451398
229807 533059
391038 652083
998809 62315
521586 397122
804911 361482
361994 987055
183782 432738
961204 509615
489054 16653
87427 30191
400831 152229
755802 798329
733315 102107
258072 887409
146345 26807
834551 727285
494706 981551
386429 590780
538687 397589
825851 489918
659831 385122
601167 51283
