534739 410027
336143 208833
638958 545167
524546 837775
959881 318340
801087 163436
371777 876575
983649 820566
362196 518680
463972 633488
85683 695304
645418 248
695483 304945
587474 50509
981594 222166
998368 630410
949027 526518
815891 459078
497659 603471
554281 605128
700756 633218
220116 400434
714354 315077
942976 925457
664119 238781
325940 230126
163756 431649
286536 313048
490910 8865
127420 418397
481163 66418
207624 379528
865829 620938
698898 872091
836038 929391
93715 519982
477092 550205
347516 130340
140159 470839
351504 144514
811897 150273
593508 521865
243737 496694
162131 632282
585768 423430
744385 479082
942729 100677
881833 868698
806454 693899
725676 984319
31436 763256
32886 562441
564248 393065
659804 383687
352837 865511
9388 733332
944738 154680
436837 567859
108887 858387
563080 898853
85743 701390
877629 13840
824478 741467
22661 185479
402123 428368
595727 741481
806930 909964
413160 283554
985467 954973
553085 531519
989921 416972
732812 45138
554028 336869
926956 770402
613680 531661
117462 501391
843431 816793
469696 740034
480716 10647
150597 188999
370114 354868
386723 377234
821475 554915
419655 514697
218378 461355
919744 177183
274995 832803
641875 769774
894722 736317
35872 749088
974233 272811
190570 193967
296962 168080
497267 506053
418693 606993
771504 594313
977028 283485
304147 308879
564990 293064
143965 27977
635792 335705
887332 323391
520781 973617
176912 294111
712369 987116
685595 762741
556228 789633
784651 859318
510263 615313
531616 378821
279064 347923
945508 68729
341962 195607
127636 451498
402003 999967
667243 612834
536902 323801
402644 62730
847336 489998
739311 120402
499737 146819
165186 402933
567970 409853
218635 229694
701983 346952
422279 821586
688254 99190
316220 413814
337189 296942
746434 599214
566942 456495
199645 417009
502362 363716
477347 920383
243473 566991
154631 429272
364738 817997
584530 562586
47466 899661
714708 16073
301558 430647
772526 374625
781966 50958
20815 448733
410868 40741
877773 505794
754441 344555
594435 983131
214955 531954
840073 178383
560930 903420
874577 831066
17781 752646
967349 294448
534419 140518
787714 833804
361772 180195
424893 755011
456419 442151
30734 327629
512794 683798
317144 450783
571905 493715
436561 520212
427035 143873
12514 892457
2167 370818
234331 444783
854278 334823
825160 524486
105168 343388
637000 697873
938086 784054
725966 716523
102840 495011
234991 20944
785669 903633
759304 75227
557949 73819
562529 960490
758309 689592
758105 345651
165795 486824
501283 378741
778480 528901
912856 604928
740621 188871
490597 150556
351001 427902
202335 898789
972518 497079
542869 375759
237829 942221
125625 391892
735445 371074
753202 834905
18390 431313
988474 205105
415607 802005
870404 482210
716005 239294
30545 44421
710675 676102
867790 552662
957270 24612
736650 630657
240920 484352
204168 434545
474832 994675
361307 405497
779094 485864
807644 774468
884108 402594
333760 445434
844 764036
270971 283744
325505 286531
761481 540068
518848 570046
960021 824940
660333 75414
654191 48082
760720 34681
