821220 106021
176178 598881
840958 424639
950229 800221
435016 114655
418171 736871
693920 341060
212803 213363
675717 229885
245571 475479
502614 509271
411724 129852
519847 40952
152707 375527
846159 838614
526429 374119
617443 927760
603851 773065
938748 936876
262522 95151
110464 970400
740027 553484
543501 887855
900902 482470
175800 479087
8782 304085
704802 57794
380522 659063
888179 79537
371028 786668
740635 213857
366522 787594
329929 616619
35160 876816
130398 642886
990494 545930
47409 928533
718224 500356
268540 592057
147761 913712
991032 765628
580520 929025
967425 940061
705548 403447
442612 829958
68014 968297
842253 318385
210084 773368
170679 9888
569854 258149
780724 142739
499521 396922
89670 688982
883887 106212
768873 413427
449654 664249
930401 500759
546485 730763
246439 37620
504685 369235
374241 597426
898399 910977
9778 84089
239900 434046
264269 608700
803032 575197
546799 744971
62318 606800
448629 658092
500919 867527
492286 217108
717504 231384
214068 413408
556552 854642
69194 631533
283290 676350
3798 417748
289184 113312
942657 934935
219841 299282
727714 753367
867619 927413
551753 408813
430133 537421
182799 861278
944651 605220
268891 18771
293876 105667
646420 988860
882610 519431
4857 216737
83417 797725
296455 197142
153210 486063
494000 336266
493198 684908
853151 441826
719465 630488
333401 118879
607182 566498
489355 285677
180401 788746
583399 783597
889572 584567
251433 719748
337493 128331
430069 165526
378496 180668
935337 605024
398767 979362
791265 24932
147110 455302
247012 150782
947814 947488
539935 764302
832708 708149
737036 836778
856451 592023
741327 351205
25439 176835
826511 318126
88105 703107
790134 149403
3175 981852
676587 81318
830722 463584
567520 343228
332832 177953
457779 510854
380922 334495
983922 570966
542052 38535
936187 214125
814169 749097
508682 647417
50554 913040
984466 902970
761833 760710
529890 700029
238373 931433
247984 194084
187699 919112
125908 946692
603109 152498
692525 89642
640237 268270
491877 491074
282231 990809
137717 871424
873441 691979
459779 789480
874590 994267
840263 444198
221611 892255
586316 634339
658221 905686
543441 546065
748530 794793
895784 349361
88964 791627
238103 200438
331111 492639
729948 890387
57470 611244
415159 440250
143613 925572
773021 769433
614354 311541
544255 55493
482154 869797
493014 465199
927779 284234
381128 393717
745734 995111
699017 218044
609821 135055
492330 898542
746851 770963
222860 787602
56259 652972
713221 678430
719502 252756
122663 287515
552698 150776
839571 454929
941616 528613
38153 301788
443700 156420
303195 735276
955692 800575
815299 382729
258546 959438
506380 455154
281536 483553
7117 593738
837336 871409
36919 492091
73544 60987
592726 190143
483236 413867
610739 846247
682252 360032
523217 62935
294197 732486
225886 38735
730394 599169
50500 995657
555578 659422
431377 728870
695078 324339
131652 598826
484167 16493
695543 633026
398571 154097
98418 158497
915748 25236
105447 988893
161214 850112
822549 150533
37212 688407
268677 162401
154793 178814
813146 228503
428539 249646
861976 437151
637497 760666
107656 44718
709993 597324
308911 162614
50477 804834
583807 121994
904749 427265
387039 829217
753646 288053
642463 55231
462911 418444
587291 48516
391628 69752
635975 969022
190329 968645
71060 416242
393735 273717
409200 478539
2304 359863
590805 754689
957336 905348
166833 209834
819622 930080
742629 636682
345401 830400
838050 775641
35934 912312
173967 237716
946334 213960
826636 362958
389918 140882
470574 191020
759524 16708
514666 682827
367173 13143
33932 953970
166873 80242
705384 637358
393343 999901
508159 900843
948205 95263
868059 580244
888895 374613
